^C:\USERS\MAGSHIMIM\DESKTOP\TRIVIA\BACKEND\DEBUG\DATABASE.OBJ|C:\USERS\MAGSHIMIM\DESKTOP\TRIVIA\BACKEND\DEBUG\GAME.OBJ|C:\USERS\MAGSHIMIM\DESKTOP\TRIVIA\BACKEND\DEBUG\HELPER.OBJ|C:\USERS\MAGSHIMIM\DESKTOP\TRIVIA\BACKEND\DEBUG\QUESTION.OBJ|C:\USERS\MAGSHIMIM\DESKTOP\TRIVIA\BACKEND\DEBUG\RECIEVEDMESSAGE.OBJ|C:\USERS\MAGSHIMIM\DESKTOP\TRIVIA\BACKEND\DEBUG\ROOM.OBJ|C:\USERS\MAGSHIMIM\DESKTOP\TRIVIA\BACKEND\DEBUG\SOURCE.OBJ|C:\USERS\MAGSHIMIM\DESKTOP\TRIVIA\BACKEND\DEBUG\SQLITE3.OBJ|C:\USERS\MAGSHIMIM\DESKTOP\TRIVIA\BACKEND\DEBUG\TEMPUSER.OBJ|C:\USERS\MAGSHIMIM\DESKTOP\TRIVIA\BACKEND\DEBUG\TRIVIASERVER.OBJ|C:\USERS\MAGSHIMIM\DESKTOP\TRIVIA\BACKEND\DEBUG\USER.OBJ|C:\USERS\MAGSHIMIM\DESKTOP\TRIVIA\BACKEND\DEBUG\VALIDATOR.OBJ|C:\USERS\MAGSHIMIM\DESKTOP\TRIVIA\BACKEND\DEBUG\WSAINITIALIZER.OBJ|C:\USERS\MAGSHIMIM\DESKTOP\TRIVIA\BACKEND\DEBUG\XORCRYPT.OBJ
C:\USERS\MAGSHIMIM\DESKTOP\TRIVIA\DEBUG\BACKEND.ILK
C:\USERS\MAGSHIMIM\DESKTOP\TRIVIA\DEBUG\BACKEND.EXE
C:\USERS\MAGSHIMIM\DESKTOP\TRIVIA\DEBUG\BACKEND.PDB
